{
    "work":[
        {
            "semester":"Fall 2017",
            "projects":[
                {
                    "name":"TEAM 1",
                    "students":[
                        "Beau Brummell"
                    ],
                    "link":"someLink"
                },
                {
                    "name":"TEAM 2",
                    "students":[
                        "Jane Doe",
                        "Richard Mckenna"
                    ],
                    "link":"someLink"
                },
                {
                    "name":"TEAM 3",
                    "students":[
                        "Noonlan Soong",
                        "Joe Shmo"
                    ],
                    "link":"someLink"
                },
                {
                    "name":"TEAM 4",
                    "students":[
                        "Something Random"
                    ],
                    "link":"someLink"
                }
            ]
        }
    ]
}