
{
    "subject":"CSE",
    "semester":"Fall",
    "number":"219",
    "year":"2017",
    "title":"CS III",
    "instructor_name":"Richard Mckenna",
    "instructor_home":"www.cs.stonybrook.edu",
    "startHour":"9",
    "endHour":"20",
    "startingMonday":"10/16/2017",
    "endingFriday":"12/15/2017",
    "undergrad_tas":[
        {
            "name":"Doe John",
            "email":"doeJohn@stonybrook.edu",
            "isGrad":false
        },
        {
            "name":"John Doe",
            "email":"MrJohnDoe@Stonybrook.edu",
            "isGrad":true
        },
        {
            "name":"Something Random2",
            "email":"somethingRandom@stonybrook.edu",
            "isGrad":false
        },
        {
            "name":"SomethingWeird",
            "email":"weird@email.com",
            "isGrad":true
        }
    ],
    "officeHours":[
        {
            "day":"MONDAY",
            "time":"10_00am",
            "name":"Something Random"
        },
        {
            "day":"TUESDAY",
            "time":"10_00am",
            "name":"John Doe"
        },
        {
            "day":"MONDAY",
            "time":"10_00am",
            "name":"Something Random"
        },
        {
            "day":"MONDAY",
            "time":"5_00pm",
            "name":"Doe John"
        },
        {
            "day":"TUESDAY",
            "time":"3_00pm",
            "name":"Something Random"
        }
    ],
    "recitations":[
        {
            "section":"R01",
            "instructor":"Mckenna",
            "day":"Monday,",
            "startTime":"12:05",
            "endTime":"15:35",
            "location":"Old Computer Science 2114",
            "ta_1":"John Doe",
            "ta_2":"Something Random2"
        },
        {
            "section":"R02",
            "instructor":"Mckenna",
            "day":"Thursday,",
            "startTime":"15:25",
            "endTime":"17:03",
            "location":"Old Computer Science 2114",
            "ta_1":"Something Random2",
            "ta_2":"SomethingWeird"
        },
        {
            "section":"R03",
            "instructor":"Mckenna",
            "day":"Wednesday,",
            "startTime":"13:00",
            "endTime":"14:53",
            "location":"Old Computer Science 2114",
            "ta_1":"John Doe",
            "ta_2":"Joe Shmo"
        }
    ],
    "schedule":[
        {
            "type":"HOLIDAY",
            "date":"02/09/2017",
            "time":"",
            "title":"SNOW DAY",
            "topic":"",
            "link":"somelink",
            "criteria":""
        },
        {
            "type":"Lecture",
            "date":"02/14/2017",
            "time":"",
            "title":"Lecture 3 ",
            "topic":"Event Programming",
            "link":"",
            "criteria":""
        },
        {
            "type":"HW",
            "date":"03/27/2017",
            "time":"",
            "title":"Homework 3 ",
            "topic":"UML",
            "link":"",
            "criteria":""
        }
    ],
    "teams":[
        {
            "name":"TEAM 1",
            "red":"4d",
            "green":"33",
            "blue":"99",
            "text_color":"#FEB366",
            "link":"someLink"
        },
        {
            "name":"TEAM 2",
            "red":"b3",
            "green":"4d",
            "blue":"1a",
            "text_color":"#994D66",
            "link":"someLink"
        },
        {
            "name":"TEAM 3",
            "red":"4d",
            "green":"80",
            "blue":"80",
            "text_color":"#CC99CC",
            "link":"someLink"
        },
        {
            "name":"TEAM 4",
            "red":"80",
            "green":"4d",
            "blue":"80",
            "text_color":"#804D80",
            "link":"someLink"
        }
    ],
    "students":[
        {
            "lastName":"Brummell",
            "firstName":"Beau",
            "team":"TEAM 1",
            "role":"Lead Designer"
        },
        {
            "lastName":"Doe",
            "firstName":"Jane",
            "team":"TEAM 2",
            "role":"Lead Programmer"
        },
        {
            "lastName":"Soong",
            "firstName":"Noonlan",
            "team":"TEAM 3",
            "role":"Data Desginer"
        },
        {
            "lastName":"Shmo",
            "firstName":"Joe",
            "team":"TEAM 3",
            "role":"GUI Desginer"
        },
        {
            "lastName":"Mckenna",
            "firstName":"Richard",
            "team":"TEAM 2",
            "role":"Data Desginer"
        },
        {
            "lastName":"Random",
            "firstName":"Something",
            "team":"TEAM 4",
            "role":"Data Desginer"
        }
    ]
}